
{
  "eco": {
    "livingRoom": {
      "demand_heat": 16,
      "accept_heat": 18
    },
    "bedroom": {
      "demand_heat": 15,
      "accept_heat": 17
    },
    "office":  {
      "demand_heat": 16,
      "accept_heat": 18
    }
  }
}
